#Command: "C:\Program Files (x86)\Microsoft Visual Studio\2017\Community\VC\Tools\MSVC\14.12.25827\bin\HostX86\x64\link.exe" /ERRORREPORT:PROMPT @C:\Users\Juan\AppData\Local\Temp\tmpbbc1179a64aa49cd86037cc7ee8b024f.rsp
^C:\USERS\JUAN\DOWNLOADS\GLFRAMEWORK_STARTHERE\X64\DEBUG\INT\IMGUI.OBJ|C:\USERS\JUAN\DOWNLOADS\GLFRAMEWORK_STARTHERE\X64\DEBUG\INT\IMGUI_DEMO.OBJ|C:\USERS\JUAN\DOWNLOADS\GLFRAMEWORK_STARTHERE\X64\DEBUG\INT\IMGUI_DRAW.OBJ|C:\USERS\JUAN\DOWNLOADS\GLFRAMEWORK_STARTHERE\X64\DEBUG\INT\IMGUI_IMPL_SDL_GL3.OBJ|C:\USERS\JUAN\DOWNLOADS\GLFRAMEWORK_STARTHERE\X64\DEBUG\INT\MAIN.OBJ|C:\USERS\JUAN\DOWNLOADS\GLFRAMEWORK_STARTHERE\X64\DEBUG\INT\MY_RENDER_CODE.OBJ|C:\USERS\JUAN\DOWNLOADS\GLFRAMEWORK_STARTHERE\X64\DEBUG\INT\PHYSICS.OBJ|C:\USERS\JUAN\DOWNLOADS\GLFRAMEWORK_STARTHERE\X64\DEBUG\INT\RENDER.OBJ|C:\USERS\JUAN\DOWNLOADS\GLFRAMEWORK_STARTHERE\X64\DEBUG\INT\RENDER_PRIMS.OBJ
C:\USERS\JUAN\APPDATA\LOCAL\TEMP\LNK{4CAF0DC2-9DC7-4B57-9200-C37AD0108CF8}.TMP
#Command: "C:\Program Files (x86)\Microsoft Visual Studio\2017\Community\VC\Tools\MSVC\14.12.25827\bin\HostX86\x64\link.exe" /ERRORREPORT:PROMPT @C:\Users\Juan\AppData\Local\Temp\tmp97e3a87d7b7245c1a3d46cf2ede78fea.rsp
^C:\USERS\JUAN\DOWNLOADS\GLFRAMEWORK_STARTHERE\X64\DEBUG\INT\IMGUI.OBJ|C:\USERS\JUAN\DOWNLOADS\GLFRAMEWORK_STARTHERE\X64\DEBUG\INT\IMGUI_DEMO.OBJ|C:\USERS\JUAN\DOWNLOADS\GLFRAMEWORK_STARTHERE\X64\DEBUG\INT\IMGUI_DRAW.OBJ|C:\USERS\JUAN\DOWNLOADS\GLFRAMEWORK_STARTHERE\X64\DEBUG\INT\IMGUI_IMPL_SDL_GL3.OBJ|C:\USERS\JUAN\DOWNLOADS\GLFRAMEWORK_STARTHERE\X64\DEBUG\INT\MAIN.OBJ|C:\USERS\JUAN\DOWNLOADS\GLFRAMEWORK_STARTHERE\X64\DEBUG\INT\MY_RENDER_CODE.OBJ|C:\USERS\JUAN\DOWNLOADS\GLFRAMEWORK_STARTHERE\X64\DEBUG\INT\PHYSICS.OBJ|C:\USERS\JUAN\DOWNLOADS\GLFRAMEWORK_STARTHERE\X64\DEBUG\INT\RENDER.OBJ|C:\USERS\JUAN\DOWNLOADS\GLFRAMEWORK_STARTHERE\X64\DEBUG\INT\RENDER_PRIMS.OBJ
C:\USERS\JUAN\APPDATA\LOCAL\TEMP\LNK{34716B79-00D6-41F2-9AAB-045154D1B7D4}.TMP
